Supplier Name,Mobile,Email,Phone,GST Number,TAX Number,Country Name,State Name,City,Postcode,Address,Opening Balance
Supplier Name 1,0241763214,abc@gmail.com,0241763214,P0003461238,Ghana,Greater-Accra,Madina,591222,P.O. Box 408, Accra-Madina,0
Supplier Name 2,0241763214,abc@gmail.com,0241763214,P0003461238,Ghana,Greater-Accra,Madina,591222,P.O. Box 408, Accra-Madina,0
Supplier Name 3,0241763214,abc@gmail.com,0241763214,P0003461238,Ghana,Greater-Accra,Madina,591222,P.O. Box 408, Accra-Madina,0
Supplier Name 4,0241763214,abc@gmail.com,0241763214,P0003461238,Ghana,Greater-Accra,Madina,591222,P.O. Box 408, Accra-Madina,0
Supplier Name 5,0241763214,abc@gmail.com,0241763214,P0003461238,Ghana,Greater-Accra,Madina,591222,P.O. Box 408, Accra-Madina,0
